{
  "project_info": {
    "project_number": "88044689469",
    "firebase_url": "https://coffeeorder-ca250.firebaseio.com",
    "project_id": "coffeeorder-ca250",
    "storage_bucket": "coffeeorder-ca250.appspot.com"
  },
  "client": [
    {
      "client_info": {
        "mobilesdk_app_id": "1:88044689469:android:0320d4bb1a50bd0c2d7254",
        "android_client_info": {
          "package_name": "com.example.coffeeorder"
        }
      },
      "oauth_client": [
        {
          "client_id": "88044689469-g52jbnbfeufb6s1d3sq4firarimtser0.apps.googleusercontent.com",
          "client_type": 3
        }
      ],
      "api_key": [
        {
          "current_key": "AIzaSyATv5o7RtQfnoOIYX1PVHuZA4JHXd06ZN4"
        }
      ],
      "services": {
        "appinvite_service": {
          "other_platform_oauth_client": [
            {
              "client_id": "88044689469-g52jbnbfeufb6s1d3sq4firarimtser0.apps.googleusercontent.com",
              "client_type": 3
            }
          ]
        }
      }
    }
  ],
  "configuration_version": "1"
}